C:\Users\Lion Olivera\Desktop\Desarrolloswc\ChangeIT\src\main\java\com\changeit\interceptor\LoginInterceptor.java
C:\Users\Lion Olivera\Desktop\Desarrolloswc\ChangeIT\src\main\java\com\changeit\model\UserPuntos.java
C:\Users\Lion Olivera\Desktop\Desarrolloswc\ChangeIT\src\main\java\com\changeit\service\Impl\UserServiceHibernateImpl.java
C:\Users\Lion Olivera\Desktop\Desarrolloswc\ChangeIT\src\main\java\com\changeit\persistencia\HibernateUtil.java
C:\Users\Lion Olivera\Desktop\Desarrolloswc\ChangeIT\src\main\java\com\changeit\model\UserMedioPago.java
C:\Users\Lion Olivera\Desktop\Desarrolloswc\ChangeIT\src\main\java\com\changeit\factory\UserFactory.java
C:\Users\Lion Olivera\Desktop\Desarrolloswc\ChangeIT\src\main\java\com\changeit\model\UserLogin.java
C:\Users\Lion Olivera\Desktop\Desarrolloswc\ChangeIT\src\main\java\com\changeit\service\UserService.java
C:\Users\Lion Olivera\Desktop\Desarrolloswc\ChangeIT\src\main\java\com\changeit\controller\CHANGEITLogInController.java
C:\Users\Lion Olivera\Desktop\Desarrolloswc\ChangeIT\src\main\java\com\changeit\model\User.java
C:\Users\Lion Olivera\Desktop\Desarrolloswc\ChangeIT\src\main\java\com\changeit\model\UserFotos.java
